//
//    ARMAS MAGICAS
//

//
//  ARMA MAGICA 26 - VIRUS DARTS
//    MW_FireVirus ();
//

void() Virus_ComeVitima =
{
        if (self.enemy.health <= 0)
           {
                remove(self);
                return;
           }

        self.nextthink = time + 0.5;

        // PATCH 2.04 mirror reflete virus
        if (self.enemy.effects & EF_BRIGHTFIELD)
           {
                bbprint(self.enemy.netname);
                bbprint(" refletiu o VIRUS de ");
                bbprint(self.owner.netname);
                bbprint("!\n");
                // poing...
                local entity temp;
                temp = self.enemy;
                self.enemy = self.owner;
                self.owner = temp;

                // morto ou mirror on
                // (mirrorado se foi refletido mas o dono morreu,
                // pegou o mirror e ativou, ta os 2 com mirror)
                if ((self.enemy.health <= 0) || (self.enemy.effects & EF_BRIGHTFIELD))
                   {
                        remove(self);
                        return;
                   }

                ccenterprint(self.enemy, "Seu VIRUS foi refletido\nde volta para voce!!", 1);
                return;
           }

        // mata se chegar a menos de 30
        if (self.enemy.health <= 30)
           {
                self.enemy.armorvalue = 0;
                self.enemy.health = 1;
                self.health = 20;
           }

        // ATTACKER = inflictor = VIRUS, p/ msg death ATTACKER.CLASSNAME == "virus"? then..
        T_Damage(self.enemy, self, self, self.health);

        SpawnBlood(self.enemy.origin + '0 0 16', self.health*12);

        self.frags = self.frags - self.health;  // virus enfraquece

        if (self.frags <= 0)
        if (self.enemy.health > 0) // ve se ta vivo antes de dar os parabens.. >:-)) mihuhuahuahuahu!!
           {
                ccenterprint(self.enemy, "O VIRUS foi eliminado pelo\nseu corpo!\n\nVoce sobreviveu!!!", 3);
                remove(self);
                return;
           }
};

void() Poison_Dart_Touch =
{
        //other = self.owner;
        if (other.classname == "player")
           {
                // PATCH 2.04 mirror reflete virus
                if (other.effects & EF_BRIGHTFIELD)
                   {
                        bbprint(other.netname);
                        bbprint(" refletiu o VIRUS de ");
                        bbprint(self.owner.netname);
                        bbprint("!\n");
                        // poing...
                        local entity temp;
                        temp = other;
                        other = self.owner;
                        self.owner = temp;
                   }

                // morto ou mirror on
                // (mirrorado se foi refletido mas o dono morreu,
                // pegou o mirror e ativou, ta os 2 com mirror)
                if ((other.health <= 0) || (other.effects & EF_BRIGHTFIELD))
                   {
                        remove(self);
                        return;
                   }

                ccenterprint(other, "Voce esta' contaminado por um VIRUS!\nHaHaHaHa!!!", 1);

                local entity virus;
                virus = spawn();
                virus.owner = self.owner;

                remove(self);

                virus.classname = "td_temp";
                virus.magic = 26;  // virus ID

                virus.enemy = other; // hahaha.. si fudeu...
                virus.solid = SOLID_NOT;
                virus.movetype = MOVETYPE_NONE;
                virus.frags = 400;
                virus.health = 4;
                virus.think = Virus_ComeVitima;
                virus.nextthink = time + 1;
           }
        else
            remove(self);
};

void(vector org, vector dir) launch_spike;
void() MW_FireVirus =
{
        //TD
        //self.punchangle_x = -2;
        msg_entity = self;
	WriteByte (MSG_ONE, SVC_SMALLKICK);

        self.ammo_nails = self.ammo_nails - 15;
        self.currentammo = floor(self.ammo_nails / 15);

	local vector	dir;
	//local entity	old; //comentado por falta de uso

	sound (self, CHAN_WEAPON, "weapons/rocket1i.wav", 1, ATTN_NORM);
	self.attack_finished = time + 0.4;

        makevectors(self.v_angle);
	dir = v_forward; // era aim 1000
	launch_spike (self.origin + '0 0 16', dir);

	setmodel (newmis, "progs/s_spike.mdl");
	setsize (newmis, VEC_ORIGIN, VEC_ORIGIN);
        newmis.velocity = newmis.velocity * 2;  // 2000
        newmis.touch = Poison_Dart_Touch; //h HEHehheheHeHEHEH!!
};

//
//  ARMA MAGICA 27 - EXPLOSIVE SHOTGUN
//    MW_FireXShotgun ();
//

void() ShellExplode =
{
        // OBS: MODIFICADO
        // dano da granada = health

	T_RadiusDamage (self, self.owner, self.health, world, "xshotgun");

        //sound (self ,CHAN_WEAPON, "weapons/r_exp3.wav", 1, ATTN_NORM);

	WriteByte (MSG_MULTICAST, SVC_TEMPENTITY);
	WriteByte (MSG_MULTICAST, TE_EXPLOSION);
	WriteCoord (MSG_MULTICAST, self.origin_x);
	WriteCoord (MSG_MULTICAST, self.origin_y);
	WriteCoord (MSG_MULTICAST, self.origin_z);
        multicast (self.origin, MULTICAST_PHS);

	BecomeExplosion ();
};

void() MW_FireXShotgun =
{
	//local vector dir; //comentado por falta de uso

        //TD
	//self.punchangle_x = -2;
	msg_entity = self;
	WriteByte (MSG_ONE, SVC_SMALLKICK);

	self.ammo_shells = self.ammo_shells - 2;
        self.currentammo = floor(self.ammo_shells / 2);

        sound (self ,CHAN_WEAPON, "weapons/shotgn2.wav", 1, ATTN_NORM);
        self.attack_finished = time + 0.6;

        //EjectShell (); //Ejetar cartuchos - 2.22

        local vector direction,src;

        src = self.origin + '0 0 16';
        makevectors(self.v_angle);

	direction = v_forward + crandom() * 0.03 * v_right + crandom() * 0.02 * v_up;
	traceline (src, src + direction * 2048, FALSE, self);

        local   entity  boom;
        boom = spawn();
        boom.owner = self;
        boom.classname = "grenade";

        // health=dano da granada requer GrenadeExplode modificado

        if (trace_fraction >= 0.4)
           boom.health = 65;
        else
            boom.health = 105 * (1.1 - trace_fraction);

        boom.think = ShellExplode;
        boom.nextthink = time + 0.05;
        setorigin(boom, trace_endpos);
};
